{
   "applicationName": "MobileAppCode",
   "deploymentConfigName": "CodeDeployDefault.OneAtATime",
   "deploymentGroupName": "MobileApp_DepGroup",
   "revision": {
      "revisionType": "S3",
      "s3Location": {
         "bucket": "clep-devops/deployments",
         "bundleType": "jar",
         "key": "mobile-app-ws-0.0.1-SNAPSHOT.jar"
      }
   }
}
