com\learn\mobileappws\model\response\RequestOperationStatus.class
com\learn\mobileappws\service\UserService.class
com\learn\mobileappws\model\response\RequestOperationName.class
com\learn\mobileappws\service\impl\UserServiceImpl.class
com\learn\mobileappws\model\response\UserRest.class
com\learn\mobileappws\io\repository\UserRepository.class
com\learn\mobileappws\model\response\OperationStatusModel.class
com\learn\mobileappws\io\entity\UserEntity.class
com\learn\mobileappws\model\request\UserDetailRequestModel.class
com\learn\mobileappws\shared\Utils.class
com\learn\mobileappws\MobileAppWsApplication.class
com\learn\mobileappws\controller\UserController.class
com\learn\mobileappws\SpringApplicationContext.class
com\learn\mobileappws\dao\UserDao.class
