C:\Users\vijay\Documents\projects\mobile-app\src\main\java\com\learn\mobileappws\model\response\RequestOperationStatus.java
C:\Users\vijay\Documents\projects\mobile-app\src\main\java\com\learn\mobileappws\service\UserService.java
C:\Users\vijay\Documents\projects\mobile-app\src\main\java\com\learn\mobileappws\MobileAppWsApplication.java
C:\Users\vijay\Documents\projects\mobile-app\src\main\java\com\learn\mobileappws\io\repository\UserRepository.java
C:\Users\vijay\Documents\projects\mobile-app\src\main\java\com\learn\mobileappws\model\request\UserDetailRequestModel.java
C:\Users\vijay\Documents\projects\mobile-app\src\main\java\com\learn\mobileappws\dao\UserDao.java
C:\Users\vijay\Documents\projects\mobile-app\src\main\java\com\learn\mobileappws\service\impl\UserServiceImpl.java
C:\Users\vijay\Documents\projects\mobile-app\src\main\java\com\learn\mobileappws\SpringApplicationContext.java
C:\Users\vijay\Documents\projects\mobile-app\src\main\java\com\learn\mobileappws\io\entity\UserEntity.java
C:\Users\vijay\Documents\projects\mobile-app\src\main\java\com\learn\mobileappws\controller\UserController.java
C:\Users\vijay\Documents\projects\mobile-app\src\main\java\com\learn\mobileappws\model\response\OperationStatusModel.java
C:\Users\vijay\Documents\projects\mobile-app\src\main\java\com\learn\mobileappws\model\response\UserRest.java
C:\Users\vijay\Documents\projects\mobile-app\src\main\java\com\learn\mobileappws\model\response\RequestOperationName.java
C:\Users\vijay\Documents\projects\mobile-app\src\main\java\com\learn\mobileappws\shared\Utils.java
